%FSLAX34Y34*%
%MOMM*%
G04 EasyPC Gerber Version 16.0.6 Build 3249 *
%AMT79*0 Bullet Pad at angle 0*4,1,11,-0.40000,-0.30000,0.40000,-0.30000,0.40000,-0.10000,0.36960,0.05310,0.28290,0.18290,0.15310,0.26960,0.00000,0.30010,-0.15310,0.26960,-0.28290,0.18290,-0.36960,0.05310,-0.40000,-0.10000,-0.40000,-0.30000,0*%
%ADD79T79*%
%ADD77R,0.80000X0.80000*%
%ADD70C,0.12700*%
%ADD21C,0.20000*%
%ADD72C,0.30000*%
%ADD73C,0.60000*%
%ADD80C,0.80000*%
%ADD29C,1.00000*%
%ADD22C,1.52400*%
%ADD78R,1.00000X0.55000*%
%ADD27R,0.80000X0.80000*%
%AMT81*0 Bullet Pad at angle 180*4,1,11,0.40000,0.30000,-0.40000,0.30000,-0.40000,0.10000,-0.36960,-0.05310,-0.28290,-0.18290,-0.15310,-0.26960,0.00000,-0.30010,0.15310,-0.26960,0.28290,-0.18290,0.36960,-0.05310,0.40000,0.10000,0.40000,0.30000,0*%
%ADD81T81*%
%ADD103R,3.20000X3.20000*%
X0Y0D02*
D02*
D70*
X146193Y155341D02*
G75*
G02X148335Y145766I-1635J-5393D01*
G01*
X171360*
Y153532*
G75*
G02X164167Y152306I-4826J6599*
G01*
G75*
G02X164170Y152131I-5622J-184*
G01*
G75*
G02X152900I-5635*
G01*
G75*
G02X154500Y156064I5634*
G01*
Y170699*
G75*
G02X151923Y175948I4058J5249*
G01*
Y181448*
G75*
G02X153650Y185913I6635*
G01*
X151729*
X148970Y183154*
G75*
G02X149193Y181448I-6413J-1706*
G01*
Y175948*
G75*
G02X146193Y170397I-6635*
G01*
Y155341*
G36*
G75*
G02X148335Y145766I-1635J-5393*
G01*
X171360*
Y153532*
G75*
G02X164167Y152306I-4826J6599*
G01*
G75*
G02X164170Y152131I-5622J-184*
G01*
G75*
G02X152900I-5635*
G01*
G75*
G02X154500Y156064I5634*
G01*
Y170699*
G75*
G02X151923Y175948I4058J5249*
G01*
Y181448*
G75*
G02X153650Y185913I6635*
G01*
X151729*
X148970Y183154*
G75*
G02X149193Y181448I-6413J-1706*
G01*
Y175948*
G75*
G02X146193Y170397I-6635*
G01*
Y155341*
G37*
X326423Y52347D02*
G75*
G02X317352Y46876I-9071J4784D01*
G01*
G75*
G02Y67386J10255*
G01*
G75*
G02X326423Y61915J-10255*
G01*
Y78404*
G75*
G02X317035Y72276I-9388J4127*
G01*
G75*
G02Y92786J10255*
G01*
G75*
G02X326423Y86658J-10255*
G01*
Y205404*
G75*
G02X317035Y199276I-9388J4127*
G01*
G75*
G02Y219786J10255*
G01*
G75*
G02X326423Y213658J-10255*
G01*
Y219813*
X22720*
Y45583*
X326423*
Y52347*
X37635Y199276D02*
G75*
G02Y219786J10255D01*
G01*
G75*
G02Y199276J-10255*
G01*
X47932Y147203D02*
G75*
G02X48988Y149518I3626J-256D01*
G01*
X50363Y150894*
G75*
G02X49900Y153131I5171J2237*
G01*
G75*
G02X61170I5635*
G01*
G75*
G02X57665Y147914I-5635*
G01*
X56954Y147203*
X58193*
Y133933*
X44923*
Y147203*
X47932*
X58193Y119923D02*
Y117423D01*
X44923*
Y130693*
X58193*
Y128193*
X67923*
Y130693*
X81193*
Y117423*
X78693*
Y109661*
X88968Y99386*
X93170*
Y97666*
X96535*
G75*
G02X99742Y96338J-4535*
G01*
X109413Y86666*
X145280*
Y88766*
X158550*
Y81344*
X161250Y78644*
Y89306*
X175600*
Y87753*
G75*
G02X189710Y82131I5935J-5622*
G01*
G75*
G02X175600Y76509I-8175*
G01*
Y75124*
G75*
G02X178953Y72266I-3066J-6992*
G01*
X230152*
G75*
G02X233076Y71055J-4135*
G01*
X237017Y67114*
Y75748*
G75*
G02X238074Y78509I4134*
G01*
G75*
G02X237900Y80131I7462J1621*
G01*
G75*
G02X253170I7635*
G01*
G75*
G02X245287Y72500I-7635*
G01*
Y66515*
G75*
G02X241152Y46876I-4135J-9384*
G01*
G75*
G02X231592Y60843J10255*
G01*
X228439Y63996*
X178953*
G75*
G02X166117I-6418J4135*
G01*
X165915*
G75*
G02X162991Y65207J4135*
G01*
X152702Y75496*
X145280*
Y77596*
X107535*
G75*
G02X104328Y78924J4535*
G01*
X94657Y88596*
X93170*
Y86116*
X79900*
Y96758*
X71634Y105024*
G75*
G02X70423Y107948I2924J2924*
G01*
Y117423*
X67923*
Y119923*
X58193*
X63035Y199276D02*
G75*
G02Y219786J10255D01*
G01*
G75*
G02Y199276J-10255*
G01*
X70923Y147203D02*
Y149948D01*
G75*
G02X71988Y152518I3635J-1*
G01*
X75923Y156454*
Y164642*
G75*
G02X73923Y168948I3635J4306*
G01*
G75*
G02X85193I5635*
G01*
G75*
G02X83193Y164642I-5635*
G01*
Y154948*
G75*
G02X82128Y152378I-3635J1*
G01*
X78193Y148442*
Y147203*
X81193*
Y133933*
X67923*
Y147203*
X70923*
X79900Y72606D02*
X51448D01*
G75*
G02X48878Y73671I1J3635*
G01*
X37988Y84561*
G75*
G02X36923Y87131I2570J2571*
G01*
Y189131*
G75*
G02X37988Y191701I3635J-1*
G01*
X42988Y196701*
G75*
G02X45558Y197766I2571J-2570*
G01*
X122329*
X129884Y205321*
G75*
G02X139235Y219786I9351J4210*
G01*
G75*
G02X144245Y200583J-10255*
G01*
X150052*
X155136Y205667*
G75*
G02X164635Y219786I9499J3864*
G01*
G75*
G02X170300Y200983J-10255*
G01*
X175877*
X180532Y205677*
G75*
G02X190035Y219786I9503J3854*
G01*
G75*
G02Y199276J-10255*
G01*
G75*
G02X186262Y199995I-1J10255*
G01*
X180423Y194107*
G75*
G02X177558Y192913I-2865J2841*
G01*
X170229*
X164411Y187095*
G75*
G02X163148Y186239I-2854J2852*
G01*
G75*
G02X163306Y186083I-4578J-4795*
G01*
X164552*
X169988Y191518*
G75*
G02X172558Y192583I2571J-2570*
G01*
X193346*
X206084Y205321*
G75*
G02X215435Y219786I9351J4210*
G01*
G75*
G02Y199276J-10255*
G01*
G75*
G02X211225Y200180J10255*
G01*
X197422Y186378*
G75*
G02X194852Y185313I-2571J2570*
G01*
X174064*
X168628Y179878*
G75*
G02X166058Y178813I-2571J2570*
G01*
X165193*
Y175948*
G75*
G02X162570Y170663I-6635*
G01*
Y167280*
G75*
G02X171360Y166730I3965J-7149*
G01*
Y181306*
X209710*
Y145766*
X212235*
X215923Y149454*
Y175131*
G75*
G02X216988Y177701I3635J-1*
G01*
X226988Y187701*
G75*
G02X229558Y188766I2571J-2570*
G01*
X237229*
G75*
G02X247170Y185131I4306J-3635*
G01*
G75*
G02X245099Y180766I-5635*
G01*
X269170*
Y180261*
G75*
G02X283710Y175131I6365J-5130*
G01*
G75*
G02X269170Y170001I-8175*
G01*
Y149344*
X273248Y145266*
X275360*
Y156556*
X275900*
Y165516*
X280630*
G75*
G02X280965Y165901I2903J-2187*
G01*
X286094Y171031*
G75*
G02X285190Y175241I9350J4210*
G01*
G75*
G02X305700I10255*
G01*
G75*
G02X298699Y165516I-10255*
G01*
X313170*
Y154746*
X309670*
Y146516*
X313170*
Y135746*
X297900*
Y136996*
X291170*
Y135746*
X283998*
X280670Y132418*
Y131549*
G75*
G02X284170Y125131I-4135J-6418*
G01*
G75*
G02X268900I-7635*
G01*
G75*
G02X272400Y131549I7635*
G01*
Y134131*
G75*
G02X273553Y136996I4135J1*
G01*
X271535*
G75*
G02X268611Y138207J4135*
G01*
X263322Y143496*
X247910*
G75*
G02X249105Y142701I-1376J-3364*
G01*
X251041Y140766*
X255229*
G75*
G02X265170Y137131I4306J-3635*
G01*
G75*
G02X255229Y133496I-5635*
G01*
X249535*
G75*
G02X246965Y134561I1J3635*
G01*
X245029Y136496*
X243099*
G75*
G02X244055Y128766I-3564J-4365*
G01*
X268170*
Y114266*
X278622*
X285885Y121529*
G75*
G02X285190Y125241I9560J3711*
G01*
G75*
G02X305700I10255*
G01*
G75*
G02X291733Y115681I-10255*
G01*
X283259Y107207*
G75*
G02X280335Y105996I-2924J2924*
G01*
X268170*
Y91496*
X230900*
Y128096*
X208710*
Y120802*
G75*
G02X219710Y113131I2825J-7671*
G01*
G75*
G02X208710Y105460I-8175*
G01*
Y90956*
X170360*
Y128096*
X157206*
X150205Y121095*
G75*
G02X147352Y119913I-2853J2853*
G01*
X142710*
Y108066*
X128360*
Y119913*
X117558*
G75*
G02X114705Y121095J4035*
G01*
X110705Y125095*
G75*
G02X109523Y127948I2853J2853*
G01*
Y141283*
G75*
G02X100741Y139803I-4965J2665*
G01*
X100193*
Y137203*
X86923*
Y150473*
X100193*
Y147873*
X100515*
G75*
G02X105404Y149519I4043J-3924*
G01*
G75*
G02X105143Y150948I3774J1428*
G01*
Y151313*
X102543*
Y164583*
X115813*
Y151313*
X114762*
X116279Y149928*
G75*
G02X117524Y147693I-2722J-2980*
G01*
X130193*
Y138386*
X137029*
X138098Y139455*
G75*
G02X137988Y139561I2463J2666*
G01*
X130988Y146561*
G75*
G02X129923Y149131I2570J2571*
G01*
Y150393*
X116383*
Y164619*
G75*
G02X113383Y170948I5175J6329*
G01*
G75*
G02X129733I8175*
G01*
G75*
G02X126880Y164743I-8175J1*
G01*
X129923*
Y189948*
G75*
G02X130988Y192518I3635J-1*
G01*
X137841Y199371*
G75*
G02X135025Y200180I1395J10161*
G01*
X126405Y191561*
G75*
G02X123835Y190496I-2571J2570*
G01*
X47064*
X44193Y187625*
Y88637*
X52954Y79876*
X79900*
Y82876*
X93170*
Y74747*
X99151Y68766*
X117229*
G75*
G02X127170Y65131I4306J-3635*
G01*
G75*
G02X117229Y61496I-5635*
G01*
X97645*
G75*
G02X95075Y62561I1J3635*
G01*
X88029Y69606*
X79900*
Y72606*
X86383Y134503D02*
X100733D01*
Y120153*
X86383*
Y134503*
X88435Y199276D02*
G75*
G02Y219786J10255D01*
G01*
G75*
G02Y199276J-10255*
G01*
X89033Y164583D02*
Y168264D01*
G75*
G02X90098Y170834I3635J-1*
G01*
X92920Y173657*
G75*
G02X92900Y174131I5611J474*
G01*
G75*
G02X104170I5635*
G01*
G75*
G02X98061Y168516I-5635*
G01*
X96303Y166758*
Y164583*
X99303*
Y151313*
X86033*
Y164583*
X89033*
X101733Y110948D02*
G75*
G02X85383I-8175D01*
G01*
G75*
G02X101733I8175*
G01*
X113835Y199276D02*
G75*
G02Y219786J10255D01*
G01*
G75*
G02Y199276J-10255*
G01*
X240835D02*
G75*
G02Y219786J10255D01*
G01*
G75*
G02Y199276J-10255*
G01*
X266235D02*
G75*
G02Y219786J10255D01*
G01*
G75*
G02Y199276J-10255*
G01*
X266552Y46876D02*
G75*
G02Y67386J10255D01*
G01*
G75*
G02Y46876J-10255*
G01*
X291635Y71736D02*
G75*
G02Y93326J10795D01*
G01*
G75*
G02Y71736J-10795*
G01*
Y199276D02*
G75*
G02Y219786J10255D01*
G01*
G75*
G02Y199276J-10255*
G01*
X291952Y46336D02*
G75*
G02Y67926J10795D01*
G01*
G75*
G02Y46336J-10795*
G01*
X22720Y209531D02*
G36*
Y165539D01*
X36923*
Y189131*
G75*
G02X37988Y191701I3635J-1*
G01*
X42988Y196701*
G75*
G02X45558Y197766I2571J-2570*
G01*
X122329*
X129884Y205321*
G75*
G02X128980Y209531I9351J4210*
G01*
X124090*
G75*
G02X113835Y199276I-10255*
G01*
G75*
G02X103580Y209531J10255*
G01*
X98690*
G75*
G02X88435Y199276I-10255*
G01*
G75*
G02X78180Y209531J10255*
G01*
X73290*
G75*
G02X63035Y199276I-10255*
G01*
G75*
G02X52780Y209531J10255*
G01*
X47890*
G75*
G02X37635Y199276I-10255*
G01*
G75*
G02X27380Y209531J10255*
G01*
X22720*
G37*
X27380D02*
G36*
G75*
G02X37635Y219786I10255D01*
G01*
G75*
G02X47890Y209531J-10255*
G01*
X52780*
G75*
G02X63035Y219786I10255*
G01*
G75*
G02X73290Y209531J-10255*
G01*
X78180*
G75*
G02X88435Y219786I10255*
G01*
G75*
G02X98690Y209531J-10255*
G01*
X103580*
G75*
G02X113835Y219786I10255*
G01*
G75*
G02X124090Y209531J-10255*
G01*
X128980*
G75*
G02X139235Y219786I10255*
G01*
G75*
G02X144245Y200583J-10255*
G01*
X150052*
X155136Y205667*
G75*
G02X164635Y219786I9499J3864*
G01*
G75*
G02X170300Y200983J-10255*
G01*
X175877*
X180532Y205677*
G75*
G02X190035Y219786I9503J3854*
G01*
G75*
G02Y199276J-10255*
G01*
G75*
G02X186262Y199995I-1J10255*
G01*
X180423Y194107*
G75*
G02X177558Y192913I-2865J2841*
G01*
X170229*
X164411Y187095*
G75*
G02X163148Y186239I-2854J2852*
G01*
G75*
G02X163306Y186083I-4578J-4795*
G01*
X164552*
X169988Y191518*
G75*
G02X172558Y192583I2571J-2570*
G01*
X193346*
X206084Y205321*
G75*
G02X215435Y219786I9351J4210*
G01*
G75*
G02X225690Y209531J-10255*
G01*
X230580*
G75*
G02X240835Y219786I10255*
G01*
G75*
G02X251090Y209531J-10255*
G01*
X255980*
G75*
G02X266235Y219786I10255*
G01*
G75*
G02X276490Y209531J-10255*
G01*
X281380*
G75*
G02X291635Y219786I10255*
G01*
G75*
G02X301890Y209531J-10255*
G01*
X306780*
G75*
G02X317035Y219786I10255*
G01*
G75*
G02X326423Y213658J-10255*
G01*
Y219813*
X22720*
Y209531*
X27380*
G37*
X225690D02*
G36*
G75*
G02X215435Y199276I-10255D01*
G01*
G75*
G02X211225Y200180J10255*
G01*
X197422Y186378*
G75*
G02X194852Y185313I-2571J2570*
G01*
X174064*
X168628Y179878*
G75*
G02X166058Y178813I-2571J2570*
G01*
X165193*
Y175948*
G75*
G02X162570Y170663I-6635*
G01*
Y167280*
G75*
G02X171360Y166730I3965J-7149*
G01*
Y181306*
X209710*
Y145766*
X212235*
X215923Y149454*
Y175131*
G75*
G02X216988Y177701I3635J-1*
G01*
X226988Y187701*
G75*
G02X229558Y188766I2571J-2570*
G01*
X237229*
G75*
G02X247170Y185131I4306J-3635*
G01*
G75*
G02X245099Y180766I-5635*
G01*
X269170*
Y180261*
G75*
G02X283710Y175131I6365J-5130*
G01*
G75*
G02X269170Y170001I-8175*
G01*
Y149344*
X273248Y145266*
X275360*
Y156556*
X275900*
Y165516*
X280630*
G75*
G02X280965Y165901I2903J-2187*
G01*
X286094Y171031*
G75*
G02X285190Y175241I9350J4210*
G01*
G75*
G02X305700I10255*
G01*
G75*
G02X298767Y165539I-10255*
G01*
X326423*
Y205404*
G75*
G02X317035Y199276I-9388J4127*
G01*
G75*
G02X306780Y209531J10255*
G01*
X301890*
G75*
G02X291635Y199276I-10255*
G01*
G75*
G02X281380Y209531J10255*
G01*
X276490*
G75*
G02X266235Y199276I-10255*
G01*
G75*
G02X255980Y209531J10255*
G01*
X251090*
G75*
G02X240835Y199276I-10255*
G01*
G75*
G02X230580Y209531J10255*
G01*
X225690*
G37*
X22720Y146349D02*
G36*
Y127328D01*
X36923*
Y146349*
X22720*
G37*
X36923D02*
G36*
Y165539D01*
X22720*
Y146349*
X36923*
G37*
X44193D02*
G36*
Y127328D01*
X44923*
Y130693*
X58193*
Y128193*
X67923*
Y130693*
X81193*
Y127328*
X86383*
Y134503*
X100733*
Y127328*
X109571*
G75*
G02X109523Y127948I3987J620*
G01*
Y141283*
G75*
G02X100741Y139803I-4965J2665*
G01*
X100193*
Y137203*
X86923*
Y146349*
X81193*
Y133933*
X67923*
Y146349*
X58193*
Y133933*
X44923*
Y146349*
X44193*
G37*
X44923D02*
G36*
Y147203D01*
X47932*
G75*
G02X48988Y149518I3626J-256*
G01*
X50363Y150894*
G75*
G02X49900Y153131I5171J2237*
G01*
G75*
G02X61170I5635*
G01*
G75*
G02X57665Y147914I-5635*
G01*
X56954Y147203*
X58193*
Y146349*
X67923*
Y147203*
X70923*
Y149948*
G75*
G02X71988Y152518I3635J-1*
G01*
X75923Y156454*
Y164642*
G75*
G02X75071Y165539I3635J4306*
G01*
X44193*
Y146349*
X44923*
G37*
X86923D02*
G36*
Y150473D01*
X100193*
Y147873*
X100515*
G75*
G02X105404Y149519I4043J-3924*
G01*
G75*
G02X105143Y150948I3774J1428*
G01*
Y151313*
X102543*
Y164583*
X115813*
Y151313*
X114762*
X116279Y149928*
G75*
G02X117524Y147693I-2722J-2980*
G01*
X130193*
Y138386*
X137029*
X138098Y139455*
G75*
G02X137988Y139561I2463J2666*
G01*
X130988Y146561*
G75*
G02X129923Y149131I2570J2571*
G01*
Y150393*
X116383*
Y164619*
G75*
G02X115427Y165539I5172J6331*
G01*
X96303*
Y164583*
X99303*
Y151313*
X86033*
Y164583*
X89033*
Y165539*
X84045*
G75*
G02X83193Y164642I-4487J3409*
G01*
Y154948*
G75*
G02X82128Y152378I-3635J1*
G01*
X78193Y148442*
Y147203*
X81193*
Y146349*
X86923*
G37*
X313170D02*
G36*
Y135746D01*
X297900*
Y136996*
X291170*
Y135746*
X283998*
X280670Y132418*
Y131549*
G75*
G02X284170Y125131I-4135J-6418*
G01*
G75*
G02X268900I-7635*
G01*
G75*
G02X272400Y131549I7635*
G01*
Y134131*
G75*
G02X273553Y136996I4135J1*
G01*
X271535*
G75*
G02X268611Y138207J4135*
G01*
X263322Y143496*
X247910*
G75*
G02X249105Y142701I-1376J-3364*
G01*
X251041Y140766*
X255229*
G75*
G02X265170Y137131I4306J-3635*
G01*
G75*
G02X255229Y133496I-5635*
G01*
X249535*
G75*
G02X246965Y134561I1J3635*
G01*
X245029Y136496*
X243099*
G75*
G02X244055Y128766I-3564J-4365*
G01*
X268170*
Y114266*
X278622*
X285885Y121529*
G75*
G02X285190Y125241I9560J3711*
G01*
G75*
G02X305485Y127328I10255*
G01*
X326423*
Y146349*
X313170*
G37*
X326423D02*
G36*
Y165539D01*
X298767*
G75*
G02X298699Y165516I-3320J9704*
G01*
X313170*
Y154746*
X309670*
Y146516*
X313170*
Y146349*
X326423*
G37*
X22720Y88784D02*
G36*
Y57131D01*
X230897*
G75*
G02X231592Y60843I10255J1*
G01*
X228439Y63996*
X178953*
G75*
G02X166117I-6418J4135*
G01*
X165915*
G75*
G02X162991Y65207J4135*
G01*
X152702Y75496*
X145280*
Y77596*
X107535*
G75*
G02X104328Y78924J4535*
G01*
X94657Y88596*
X93170*
Y86116*
X79900*
Y88784*
X44193*
Y88637*
X52954Y79876*
X79900*
Y82876*
X93170*
Y74747*
X99151Y68766*
X117229*
G75*
G02X127170Y65131I4306J-3635*
G01*
G75*
G02X117229Y61496I-5635*
G01*
X97645*
G75*
G02X95075Y62561I1J3635*
G01*
X88029Y69606*
X79900*
Y72606*
X51448*
G75*
G02X48878Y73671I1J3635*
G01*
X37988Y84561*
G75*
G02X36923Y87131I2570J2571*
G01*
Y88784*
X22720*
G37*
X36923D02*
G36*
Y110948D01*
X22720*
Y88784*
X36923*
G37*
X79900D02*
G36*
Y96758D01*
X71634Y105024*
G75*
G02X70423Y107948I2924J2924*
G01*
Y110948*
X44193*
Y88784*
X79900*
G37*
X186286D02*
G36*
G75*
G02X189710Y82131I-4751J-6653D01*
G01*
G75*
G02X175600Y76509I-8175*
G01*
Y75124*
G75*
G02X178953Y72266I-3066J-6992*
G01*
X230152*
G75*
G02X233076Y71055J-4135*
G01*
X237017Y67114*
Y75748*
G75*
G02X238074Y78509I4134*
G01*
G75*
G02X237900Y80131I7462J1621*
G01*
G75*
G02X253170I7635*
G01*
G75*
G02X245287Y72500I-7635*
G01*
Y66515*
G75*
G02X251407Y57131I-4135J-9384*
G01*
X256297*
G75*
G02X266552Y67386I10255*
G01*
G75*
G02X276807Y57131J-10255*
G01*
X281157*
G75*
G02X291952Y67926I10795*
G01*
G75*
G02X302747Y57131J-10795*
G01*
X307097*
G75*
G02X317352Y67386I10255*
G01*
G75*
G02X326423Y61915J-10255*
G01*
Y78404*
G75*
G02X317035Y72276I-9388J4127*
G01*
G75*
G02X308907Y88784J10255*
G01*
X300435*
G75*
G02X291635Y71736I-8800J-6253*
G01*
G75*
G02X282835Y88784J10795*
G01*
X186286*
G37*
X282835D02*
G36*
G75*
G02X291635Y93326I8800J-6253D01*
G01*
G75*
G02X300435Y88784J-10795*
G01*
X308907*
G75*
G02X317035Y92786I8128J-6253*
G01*
G75*
G02X326423Y86658J-10255*
G01*
Y110948*
X287000*
X283259Y107207*
G75*
G02X280335Y105996I-2924J2924*
G01*
X268170*
Y91496*
X230900*
Y128096*
X208710*
Y120802*
G75*
G02X219710Y113131I2825J-7671*
G01*
G75*
G02X208710Y105460I-8175*
G01*
Y90956*
X170360*
Y128096*
X157206*
X150205Y121095*
G75*
G02X147352Y119913I-2853J2853*
G01*
X142710*
Y108066*
X128360*
Y110948*
X101733*
G75*
G02X85383I-8175*
G01*
X78693*
Y109661*
X88968Y99386*
X93170*
Y97666*
X96535*
G75*
G02X99742Y96338J-4535*
G01*
X109413Y86666*
X145280*
Y88766*
X158550*
Y81344*
X161250Y78644*
Y89306*
X175600*
Y87753*
G75*
G02X186286Y88784I5935J-5622*
G01*
X282835*
G37*
X22720Y127328D02*
G36*
Y110948D01*
X36923*
Y127328*
X22720*
G37*
X44193D02*
G36*
Y110948D01*
X70423*
Y117423*
X67923*
Y119923*
X58193*
Y117423*
X44923*
Y127328*
X44193*
G37*
X81193D02*
G36*
Y117423D01*
X78693*
Y110948*
X85383*
G75*
G02X101733I8175*
G01*
X128360*
Y119913*
X117558*
G75*
G02X114705Y121095J4035*
G01*
X110705Y125095*
G75*
G02X109571Y127328I2853J2853*
G01*
X100733*
Y120153*
X86383*
Y127328*
X81193*
G37*
X305485D02*
G36*
G75*
G02X305700Y125241I-10040J-2089D01*
G01*
G75*
G02X291733Y115681I-10255*
G01*
X287000Y110948*
X326423*
Y127328*
X305485*
G37*
X75071Y165539D02*
G36*
G75*
G02X73923Y168948I4487J3409D01*
G01*
G75*
G02X85193I5635*
G01*
G75*
G02X84045Y165539I-5635*
G01*
X89033*
Y168264*
G75*
G02X90098Y170834I3635J-1*
G01*
X92920Y173657*
G75*
G02X92900Y174131I5611J474*
G01*
G75*
G02X104170I5635*
G01*
G75*
G02X98061Y168516I-5635*
G01*
X96303Y166758*
Y165539*
X115427*
G75*
G02X113383Y170948I6131J5408*
G01*
G75*
G02X129733I8175*
G01*
G75*
G02X126880Y164743I-8175J1*
G01*
X129923*
Y189948*
G75*
G02X130988Y192518I3635J-1*
G01*
X137841Y199371*
G75*
G02X135025Y200180I1395J10161*
G01*
X126405Y191561*
G75*
G02X123835Y190496I-2571J2570*
G01*
X47064*
X44193Y187625*
Y165539*
X75071*
G37*
X22720Y57131D02*
G36*
Y45583D01*
X326423*
Y52347*
G75*
G02X317352Y46876I-9071J4784*
G01*
G75*
G02X307097Y57131J10255*
G01*
X302747*
G75*
G02X291952Y46336I-10795*
G01*
G75*
G02X281157Y57131J10795*
G01*
X276807*
G75*
G02X266552Y46876I-10255*
G01*
G75*
G02X256297Y57131J10255*
G01*
X251407*
G75*
G02X241152Y46876I-10255*
G01*
G75*
G02X230897Y57131J10255*
G01*
X22720*
G37*
D02*
D21*
X55535Y153131D02*
Y150925D01*
X51558Y146948*
Y140568*
X74558D02*
Y149948D01*
X79558Y154948*
Y168948*
X86535Y76241D02*
X51448D01*
X40558Y87131*
Y189131*
X45558Y194131*
X123835*
X139235Y209531*
X89558Y110948D02*
X85018D01*
X90558Y127328D02*
X86018D01*
X92668Y157948D02*
Y168264D01*
X98535Y174131*
X93558Y106948D02*
Y102408D01*
Y114948D02*
Y119488D01*
Y124328D02*
Y119788D01*
Y130328D02*
Y134868D01*
Y143838D02*
X104448D01*
X104558Y143948*
X96558Y127328D02*
X101098D01*
X97558Y110948D02*
X102098D01*
X109178Y157948D02*
X109558D01*
Y150948*
X113558Y146948*
Y127948*
X117558Y123948*
X147352*
X155535Y132131*
X239535*
X117558Y170948D02*
X113018D01*
X121535Y65131D02*
X97645D01*
X86535Y76241*
X121558Y174948D02*
Y179488D01*
X123558Y141058D02*
Y131948D01*
X122558Y130948*
X123558Y154568D02*
Y150028D01*
X132535Y115241D02*
X127995D01*
X135535Y112241D02*
Y107701D01*
X138535Y115241D02*
X143075D01*
X142558Y174948D02*
Y151948D01*
X144558Y149948*
X158535Y152131D02*
Y174925D01*
X158558Y174948*
Y182448D02*
X166058D01*
X172558Y188948*
X194852*
X215435Y209531*
X165425Y82131D02*
X160885D01*
X166535Y156131D02*
Y151591D01*
Y164131D02*
Y168671D01*
X168425Y85131D02*
Y89671D01*
X174535Y110131D02*
X169995D01*
X181535Y78131D02*
Y73591D01*
X185535Y82131D02*
X190075D01*
X189535Y95131D02*
Y90591D01*
X190035Y209531D02*
Y209425D01*
X177558Y196948*
X168558*
X161558Y189948*
X150058*
X142558Y182448*
X190535Y177131D02*
Y181671D01*
X205535Y162131D02*
X210075D01*
X211535Y109131D02*
Y104591D01*
Y117131D02*
Y121671D01*
X215535Y113131D02*
X220075D01*
X241535Y185131D02*
X229558D01*
X219558Y175131*
Y147948*
X213741Y142131*
X140558*
X133558Y149131*
Y189948*
X140558Y196948*
X151558*
X164141Y209531*
X164635*
X259535Y137131D02*
X249535D01*
X246535Y140131*
X232535*
X229535Y137131*
X140915*
X135535Y131751*
X275535Y171131D02*
Y166591D01*
Y179131D02*
Y183671D01*
X279535Y150631D02*
X274995D01*
X279535Y175131D02*
X284075D01*
X283535Y160131D02*
Y163331D01*
X295445Y175241*
X285015Y82531D02*
X280475D01*
X285332Y57131D02*
X280792D01*
X291635Y75911D02*
Y71371D01*
Y89151D02*
Y93691D01*
X291952Y50511D02*
Y45971D01*
Y63751D02*
Y68291D01*
X298255Y82531D02*
X302795D01*
X298572Y57131D02*
X303112D01*
D02*
D22*
X37635Y209531D03*
X63035D03*
X88435D03*
X113835D03*
X139235D03*
X164635D03*
X190035D03*
X215435D03*
X240835D03*
X241152Y57131D03*
X266235Y209531D03*
X266552Y57131D03*
X291635Y82531D03*
Y209531D03*
X291952Y57131D03*
X295445Y125241D03*
Y175241D03*
X317035Y82531D03*
Y209531D03*
X317352Y57131D03*
D02*
D27*
X51558Y124058D03*
Y140568D03*
X74558Y124058D03*
Y140568D03*
X86535Y76241D03*
Y92751D03*
X93558Y127328D03*
Y143838D03*
X123558Y141058D03*
Y157568D03*
X135535Y115241D03*
Y131751D03*
D02*
D29*
X93558Y110948D03*
X121558Y170948D03*
X166535Y160131D03*
X172535Y68131D03*
X181535Y82131D03*
X211535Y113131D03*
X245535Y80131D03*
X275535Y175131D03*
X276535Y125131D03*
D02*
D72*
X74558Y124058D02*
X51558D01*
X86535Y92751D02*
Y95971D01*
X74558Y107948*
Y124058*
X93558Y110948D02*
Y127328D01*
Y110948D02*
X131242D01*
X135535Y115241*
X121558Y170948D02*
Y159568D01*
X123558Y157568*
X151915Y82131D02*
X107535D01*
X96535Y93131*
X86915*
X86535Y92751*
X166535Y160131D02*
X188535D01*
X190535Y162131*
X168425Y82131D02*
Y81241D01*
X169315Y82131*
X181535*
X172535Y68131D02*
X230152D01*
X241152Y57131*
X172535Y68131D02*
X165915D01*
X151915Y82131*
X189535Y110131D02*
X140645D01*
X135535Y115241*
X211535Y113131D02*
X192535D01*
X189535Y110131*
X241152Y57131D02*
Y75748D01*
X245535Y80131*
X249535Y110131D02*
X280335D01*
X295445Y125241*
X275535Y175131D02*
Y168131D01*
X271535Y164131*
Y153131*
X273535Y151131*
X283035*
X283535Y150631*
X276535Y125131D02*
Y134131D01*
X283535Y141131*
X271535*
X250535Y162131*
X291952Y57131D02*
Y82214D01*
X291635Y82531*
X305535Y141131D02*
X283535D01*
X305535D02*
Y160131D01*
D02*
D73*
X55535Y153131D03*
X79558Y168948D03*
X98535Y174131D03*
X104558Y143948D03*
X121535Y65131D03*
X122558Y130948D03*
X144558Y149948D03*
X158535Y152131D03*
X239535Y132131D03*
X241535Y185131D03*
X259535Y137131D03*
D02*
D77*
X92668Y157948D03*
X109178D03*
X151915Y82131D03*
X168425D03*
D02*
D78*
X283535Y141131D03*
Y150631D03*
Y160131D03*
X305535Y141131D03*
Y160131D03*
D02*
D79*
X142558Y182448D03*
X158558D03*
D02*
D81*
X142558Y174948D03*
X158558D03*
D02*
D103*
X189535Y110131D03*
X190535Y162131D03*
X249535Y110131D03*
X250535Y162131D03*
X0Y0D02*
M02*
